{
    "title": "ar1",
    "abstract": "abss",
    "keywords": [
        {"k1": "ana"},{"k1": "are"},{"k1": "mere"}
    ],
    "authors": [
        {
            "fullName": "Ana Pop",
            "institution": "ase",
            "email": "ana@yahoo.com"
        }
    ]
}